{
  "kind": "collectionType",
  "collectionName": "products",
  "info": {
    "name": "product",
    "description": ""
  },
  "options": {
    "increments": true,
    "timestamps": true,
    "draftAndPublish": true
  },
  "attributes": {
    "name": {
      "type": "string"
    },
    "description": {
      "type": "richtext"
    },
    "available": {
      "type": "boolean"
    },
    "shop": {
      "model": "shop"
    },
    "price": {
      "type": "float"
    },
    "img": {
      "collection": "file",
      "via": "related",
      "allowedTypes": [
        "images",
        "files",
        "videos"
      ],
      "plugin": "upload",
      "required": false
    }
  }
}
